{"quantidadefamiliar": [
  {
    "value":"",
    "name":"Selecione"
  },
  {
    "value":"2 Vidas |",
    "name":"02"
  },
  {
    "value":"3 Vidas |",
    "name":"03"
  },
  {
    "value":"4 Vidas |",
    "name":"04"
  },
  {
    "value":"5 Vidas |",
    "name":"05"
  },
  {
    "value":"6 Vidas |",
    "name":"06"
  },
  {
    "value":"7 Vidas |",
    "name":"07"
  },
  {
    "value":"8 Vidas |",
    "name":"08"
  },
  {
    "value":"9 Vidas |",
    "name":"09"
  },
  {
    "value":"10 Vidas |",
    "name":"10"
  },
  {
    "value":"11 Vidas |",
    "name":"11"
  },
  {
    "value":"12 Vidas |",
    "name":"12"
  },
  {
    "value":"13 Vidas |",
    "name":"13"
  },
  {
    "value":"14 Vidas |",
    "name":"14"
  },
  {
    "value":"15 Vidas |",
    "name":"15"
  },
  {
    "value":"16 Vidas |",
    "name":"16"
  },
  {
    "value":"17 Vidas |",
    "name":"17"
  },
  {
    "value":"18 Vidas |",
    "name":"18"
  },
  {
    "value":"19 Vidas |",
    "name":"19"
  },
  {
    "value":"20 Vidas |",
    "name":"20"
  },
  {
    "value":"21 Vidas |",
    "name":"21"
  },
  {
    "value":"22 Vidas |",
    "name":"22"
  },
  {
    "value":"23 Vidas |",
    "name":"23"
  },
  {
    "value":"24 Vidas |",
    "name":"24"
  },
  {
    "value":"25 Vidas |",
    "name":"25"
  },
  {
    "value":"26 Vidas |",
    "name":"26"
  },
  {
    "value":"27 Vidas |",
    "name":"27"
  },
  {
    "value":"28 Vidas |",
    "name":"28"
  },
  {
    "value":"29 Vidas |",
    "name":"29"
  },
  {
    "value":"30 Vidas |",
    "name":"30"
  },
  {
    "value":"31 Vidas |",
    "name":"31"
  },
  {
    "value":"32 Vidas |",
    "name":"32"
  },
  {
    "value":"33 Vidas |",
    "name":"33"
  },
  {
    "value":"34 Vidas |",
    "name":"34"
  },
  {
    "value":"35 Vidas |",
    "name":"35"
  },
  {
    "value":"36 Vidas |",
    "name":"36"
  },
  {
    "value":"37 Vidas |",
    "name":"37"
  },
  {
    "value":"38 Vidas |",
    "name":"38"
  },
  {
    "value":"39 Vidas |",
    "name":"39"
  },
  {
    "value":"40 Vidas |",
    "name":"40"
  },
  {
    "value":"41 Vidas |",
    "name":"41"
  },
  {
    "value":"42 Vidas |",
    "name":"42"
  },
  {
    "value":"43 Vidas |",
    "name":"43"
  },
  {
    "value":"44 Vidas |",
    "name":"44"
  },
  {
    "value":"45 Vidas |",
    "name":"45"
  },
  {
    "value":"46 Vidas |",
    "name":"46"
  },
  {
    "value":"47 Vidas |",
    "name":"47"
  },
  {
    "value":"48 Vidas |",
    "name":"48"
  },
  {
    "value":"49 Vidas |",
    "name":"49"
  },
  {
    "value":"50 Vidas |",
    "name":"50"
  },
  {
    "value":"51 Vidas |",
    "name":"51"
  },
  {
    "value":"52 Vidas |",
    "name":"52"
  },
  {
    "value":"53 Vidas |",
    "name":"53"
  },
  {
    "value":"54 Vidas |",
    "name":"54"
  },
  {
    "value":"55 Vidas |",
    "name":"55"
  },
  {
    "value":"56 Vidas |",
    "name":"56"
  },
  {
    "value":"57 Vidas |",
    "name":"57"
  },
  {
    "value":"58 Vidas |",
    "name":"58"
  },
  {
    "value":"59 Vidas |",
    "name":"59"
  },
  {
    "value":"60 Vidas |",
    "name":"60"
  },
  {
    "value":"61 Vidas |",
    "name":"61"
  },
  {
    "value":"62 Vidas |",
    "name":"62"
  },
  {
    "value":"63 Vidas |",
    "name":"63"
  },
  {
    "value":"64 Vidas |",
    "name":"64"
  },
  {
    "value":"65 Vidas |",
    "name":"65"
  },
  {
    "value":"66 Vidas |",
    "name":"66"
  },
  {
    "value":"67 Vidas |",
    "name":"67"
  },
  {
    "value":"68 Vidas |",
    "name":"68"
  },
  {
    "value":"69 Vidas |",
    "name":"69"
  },
  {
    "value":"70 Vidas |",
    "name":"70"
  },
  {
    "value":"71 Vidas |",
    "name":"71"
  },
  {
    "value":"72 Vidas |",
    "name":"72"
  },
  {
    "value":"73 Vidas |",
    "name":"73"
  },
  {
    "value":"74 Vidas |",
    "name":"74"
  },
  {
    "value":"75 Vidas |",
    "name":"75"
  },
  {
    "value":"76 Vidas |",
    "name":"76"
  },
  {
    "value":"77 Vidas |",
    "name":"77"
  },
  {
    "value":"78 Vidas |",
    "name":"78"
  },
  {
    "value":"79 Vidas |",
    "name":"79"
  },
  {
    "value":"80 Vidas |",
    "name":"80"
  },
  {
    "value":"81 Vidas |",
    "name":"81"
  },
  {
    "value":"82 Vidas |",
    "name":"82"
  },
  {
    "value":"83 Vidas |",
    "name":"83"
  },
  {
    "value":"84 Vidas |",
    "name":"84"
  },
  {
    "value":"85 Vidas |",
    "name":"85"
  },
  {
    "value":"86 Vidas |",
    "name":"86"
  },
  {
    "value":"87 Vidas |",
    "name":"87"
  },
  {
    "value":"88 Vidas |",
    "name":"88"
  },
  {
    "value":"89 Vidas |",
    "name":"89"
  },
  {
    "value":"90 Vidas |",
    "name":"90"
  },
  {
    "value":"91 Vidas |",
    "name":"91"
  },
  {
    "value":"92 Vidas |",
    "name":"92"
  },
  {
    "value":"93 Vidas |",
    "name":"93"
  },
  {
    "value":"94 Vidas |",
    "name":"94"
  },
  {
    "value":"95 Vidas |",
    "name":"95"
  },
  {
    "value":"96 Vidas |",
    "name":"96"
  },
  {
    "value":"97 Vidas |",
    "name":"97"
  },
  {
    "value":"98 Vidas |",
    "name":"98"
  },
  {
    "value":"99 Vidas |",
    "name":"99"
  },
  {
    "value":"100 Vidas |",
    "name":"100"
  },
  {
    "value":"100+ Vidas |",
    "name":"100+"
  }

]}
